{
    "name": "nomad/weather",
    "description": "Weather",
    "homepage": "http://nomadrail.com",
    "require": { },
    "require-dev": { },
    "autoload": {
        "psr-4": {
            "ExtModules\\Weather\\": "",
            "Modules\\Weather\\": ""
        }
    },
    "minimum-stability": "dev"
}
